[
{
  "_key" : "pHtitrKaS-dbr-0-0000",
  "set" : "pHtitrKaS",
  "dbr" : {
    "NodeHandle": 0,
    "NodeTypeHY": 0,
    "NodeTypeMT": 0,
    "NodeStatusFMT": -1,
    "NodeStatusCH": 1,
    "IterDone": 87,
    "TK": 298.15,
    "P": 100000,
    "Vs": 0.0134079374025991,
    "Vi": 0,
    "Ms": 1.05381311372714,
    "Mi": 0,
    "Hs": 0,
    "Hi": 0,
    "Gs": -5512.53646309621,
    "IS": 0.298183513320678,
    "pH": 3.04521586191886,
    "pe": 16.9819228496821,
    "Eh": 1.00261874061535,
    "Tm": 0,
    "dt": 0,
    "bIC": [
        0.232413571233674, 0.2, 111.581574800114, 0.100001, 1, 56.5652213689218, 0.237406556007277, 0
    ],
    "rMB": [
        -3.77290681577494e-17, 0, -1.50916272630998e-16, 0, 0, 4.15019749735244e-16, 1.88645340788747e-17, 8.84275034947252e-18
    ],
    "uIC": [
        -318.644432378284, -15.7805357649884, -46.1141911465625, -147.357954412147, -0.000499095045442452, -3.45504179554776, -335.531386061055, 39.1023224853786
    ],
    "bSP": [
        0.199443467123366, 0, 0.398886934246733, 0, 0, 0.969436738769343, 0.235414035480464, 0
    ],
    "xDC": [
        8.46104852181903e-05, 8.53622008505656e-08, 1.00179404475308e-10, 5.421638821065e-14, 0.0328277561548685, 4.17014532826294e-13, 5.76520073695109e-05, 5.34404429303964e-13, 0.100000999999466, 4.5123447230655e-10, 
        0.00193486806779258, 5.94548893666083e-20, 6.21584649895647e-29, 0.2, 0.000649919611393591, 0, 1.31367383733263e-06, 1.50820087832509e-11, 0.00123112165534042, 55.5906572405759, 
        0, 0.499350080388606, 0.000498686326165085, 0, 0.0997217335616832, 0, 0.0359705683570974
    ],
    "gam": [
        0.28873835060673, 0.733027365653777, 0.999981795529573, 0.733027365653777, 0.0611145957039224, 0.733027365653777, 0.28873835060673, 0.999981795529573, 0.733027365653777, 0.733027365653777, 
        0.999981795529573, 0.28873835060673, 0.733027365653777, 0.733027365653777, 0.999981795529573, 0.999981795529573, 0.999981795529573, 0.733027365653777, 0.733027365653777, 0.99996351794044, 
        1, 1, 1, 1, 1, 1, 1
    ],
    "dll": [
        0, 0, 0, 0, 0, 0, 0, 0, 0, 0, 
        0, 0, 0, 0, 0, 0, 0, 0, 0, 0, 
        0, 0, 0, 0, 0, 0, 0
    ],
    "dul": [
        1000000, 1000000, 1000000, 1000000, 1000000, 1000000, 1000000, 1000000, 1000000, 1000000, 
        1000000, 1000000, 1000000, 1000000, 1000000, 1000000, 1000000, 1000000, 1000000, 1000000, 
        1000000, 1000000, 1000000, 0, 1000000, 0, 1000000
    ],
    "aPH": [
        0, 0, 0, 0, 0, 0
    ],
    "xPH": [
        55.9274455681609, 0.499848766714772, 0, 0.0997217335616832, 0, 0.0359705683570974
    ],
    "vPS": [
        0.00100634648821998, 0.0123911067529802
    ],
    "mPS": [
        1.0119031858169, 0.0140044504687524
    ],
    "xPA": [
        55.5906572405759, 0
    ],
    "amru": [
        1000000, 1000000
    ],
    "amrl": [
        0, 0
    ],
    "omPH": [
        3.33044955473406e-11, -7.66624595208634e-09, -1.32557768992243, -2.34958927884669e-09, 1.03199904603089, 2.59265533158557e-09
    ],
    "bPS": [
        0.0329701041103077, 0.2, 111.182687865867, 0.100001, 0.00129983922278718, 55.5947872575002, 0.00199252052681358, -8.84275034947252e-18, 
        0, 0, 0, 0, 0.998700160777213, 0.00099737265233017, 0, 0
    ]
  }
}
]