[
{
  "_key" : "CemHyds-dbr-0-0000",
  "set" : "CemHyds",
  "dbr" : {
    "NodeHandle": 0,
    "NodeTypeHY": 0,
    "NodeTypeMT": 0,
    "NodeStatusFMT": -1,
    "NodeStatusCH": 1,
    "IterDone": 155,
    "TK": 293.15,
    "P": 100000,
    "Vs": 7.4650924381642e-05,
    "Vi": 0,
    "Ms": 0.150279600001,
    "Mi": 0,
    "Hs": 0,
    "Hi": 0,
    "Gs": -774.331482378384,
    "IS": 0.312967036500722,
    "pH": 13.5253301862199,
    "pe": 2.8354763251219,
    "Eh": 0.164600088678114,
    "Tm": 0,
    "dt": 0,
    "bIC": [
        0.0868770313332292, 1.61723191563405e-05, 4.28462590208231e-07, 8.40319891123592e-06, 0.0456602768565608, 1.18213419690862, 1.71107480084272e-05, 2.56164605772068e-06, 0.0321014681874853, 5.62062926791242, 
        0.0157606099694012, 4.17565300739889e-06, 0.021585732337295, 1.13707754078901e-05, 1.1765439564347e-06, 0.0128377005288607, 5.4729517594269e-06, 5.05068054387408, 1.02045803028765e-05, 0.0261956319919654, 
        0.336935277366923, 1.63323431803207e-05, 1.25189660229205e-05, 0
    ],
    "rMB": [
        -1.24215674400903e-17, 0, -8.42391455084252e-23, 0, -1.01248713769486e-17, 2.39554564604711e-16, 0, 1.85224189756659e-22, 0, -1.27372688009294e-15, 
        0, 5.05434873050551e-22, -2.76034832002008e-18, -1.3478263281348e-21, 0, 1.38017416001004e-18, 0, -4.09134299296913e-15, 1.3478263281348e-21, -3.62817999704787e-18, 
        1.91420990774361e-16, 2.69565265626961e-21, 0, -7.10583815528506e-19
    ],
    "uIC": [
        -299.735403260369, -235.334817925836, -257.945926718944, -43.5822565443835, -148.741683206652, -248.839151346733, -54.0981869538279, -117.90002530397, -122.551224159442, -37.6721492587238, 
        -124.077203866078, -135.14436049479, -224.57874151065, -148.522244750579, 17.2736316465455, -116.457377919922, -0.333222390629906, -21.8338089466826, -340.531597638428, -213.30420590416, 
        -318.999564254222, -255.213593899751, -330.963533492784, 6.52892553134217
    ],
    "bSP": [
        0.0868765130728429, 0, 4.04847957509093e-07, 0, 0.0456581753115653, 1.18211862342607, 0, 0, 0.0321014681815574, 4.24969235269421, 
        0.0130572735807327, 0, 0.0215857323175643, 1.1370775407871e-05, 0, 0.0114803047947313, 0, 4.36308539100974, 1.02045791527063e-05, 0.0261764060383456, 
        0.336934624064628, 1.48150926744078e-05, 1.25189660229205e-05, 0
    ],
    "xDC": [
        0, 0, 0, 5.47422055802873e-34, 1.32735269754784e-32, 1.96501690158893e-32, 2.16722968701928e-33, 0, 0, 1.49386298953678e-21, 
        5.18083417014521e-07, 3.38338816066068e-14, 9.04002297012382e-29, 2.48106060310518e-35, 1.76935444825683e-10, 6.22625664372654e-10, 1.61716965306762e-05, 4.75389194512755e-11, 9.78028210152258e-16, 4.78768914841452e-10, 
        1.93954147630916e-08, 3.69290912372625e-09, 6.00186306117336e-08, 5.31307886249617e-13, 7.57762658883365e-08, 7.54673653918673e-06, 2.97032194213927e-09, 1.56377429847002e-25, 5.39953554619395e-18, 7.56008392724243e-06, 
        1.06018504881617e-12, 1.39810858465629e-10, 3.27755458710525e-07, 4.67273423349077e-34, 0, 0, 3.2861882575331e-35, 3.76844181618257e-33, 0, 0, 
        8.54485299078321e-30, 0, 0, 0, 0, 0, 0, 0, 0, 0, 
        0, 0, 0, 8.8680086724525e-23, 5.92773930410822e-12, 1.6912282139616e-16, 3.35120709027037e-32, 0, 4.40553769648798e-06, 0.00257035833274494, 
        0.000128572518226669, 4.05090941619756e-16, 6.72258753155375e-31, 3.28870918404277e-09, 3.0925633416883e-06, 1.07980095652655e-06, 3.62679165287239e-15, 4.89027916123664e-20, 7.61448679657094e-13, 2.34589650477164e-15, 
        3.03970354670056e-32, 5.85823228841226e-25, 1.8606831467551e-11, 2.9728111993684e-21, 8.82747476628969e-15, 0, 0, 0, 0, 2.90471443733967e-17, 
        3.47514735019752e-13, 4.48039368825019e-20, 5.65605250234001e-26, 9.4861343676847e-22, 1.08718079101907e-19, 1.27922372893316e-22, 4.30324284345674e-26, 1.96217562879813e-29, 3.43117684875615e-23, 1.89851375416773e-17, 
        6.80468626983113e-07, 8.35069022656148e-12, 1.49120880307459e-06, 0.00123121040805692, 7.03826575534852e-08, 0.000123943257634081, 1.20058956902962e-16, 5.02476271158364e-31, 6.30813637338509e-08, 5.77623706234268e-19, 
        1.01837396766812e-11, 2.33359470094611e-07, 3.38392696524313e-09, 9.53845074950041e-14, 1.07821875794902e-08, 1.13554330518668e-06, 3.3876226643997e-07, 2.87787243570448e-08, 8.40319891123592e-06, 1.46816034068122e-17, 
        1.35731985238045e-06, 2.97437673716549e-10, 0, 0, 0, 0, 1.71107480084272e-05, 2.48829307581042e-06, 4.18067431384053e-20, 6.86630940257952e-17, 
        0, 1.1765439564347e-06, 0, 0, 2.73647587971345e-06, 1.15286839321817e-24, 1.4484814806369e-22, 3.82367426305036e-34, 0, 9.30598653159005e-16, 
        7.19457433242091e-31, 8.85239674548695e-14, 0, 0, 0, 1.03885007143164e-17, 1.32388811798764e-05, 0, 0, 0, 
        0, 0.00374779821905404, 4.96883194339137e-16, 0.683463776734563, 0, 0, 0, 0, 0, 0, 
        0, 0, 0, 0.179484101050102, 0.113381206252211, 0.133148494257178, 0.00529371620484517, 0.0261145471614653, 0.0229606095894625, 0, 
        0, 0, 0, 0, 0, 0, 0, 0, 0, 0.00333751850790135, 
        0.0261760011903881, 0, 0, 0, 0, 0, 0, 0, 4.04847957509093e-07, 0, 
        0, 0, 0, 0, 0, 0, 0, 0, 0, 0, 
        0, 0, 0, 0, 0, 0, 0, 0, 0, 0, 
        0, 0, 0, 0, 0, 0, 0, 0, 0, 0, 
        0, 0, 0, 0.0282039830657086, 0, 0, 0, 0, 0, 0.0141018586452809, 
        0, 0, 0, 0, 0, 0, 0, 0, 0, 0, 
        0.46125500565686, 0, 3.40152638423544e-06, 0, 0, 0, 0, 1.25189660229205e-05, 0, 0, 
        0, 0, 0, 0, 0, 0.0321014681815574, 0, 0, 0, 0, 
        0, 0, 0.00539643307939108, 0, 0, 0, 0, 0, 0, 0, 
        0, 0, 0, 0, 0, 0, 2.91394849408047e-06, 8.45682691379051e-06, 0, 0, 
        0, 0, 0, 0, 0, 0, 0, 0, 0, 0, 
        0, 0, 0, 0, 0, 0, 0, 0, 1.48150926744078e-05, 0, 
        0
    ],
    "gam": [
        0.739217945180342, 0.739217945180342, 0.0325145150206608, 0.229092986322248, 0.739217945180342, 1.09234394032298, 0.739217945180342, 0.229092986322248, 0.0325145150206608, 0.739217945180342, 
        0.739217945180342, 1.09234394032298, 0.229092986322248, 0.229092986322248, 0.0325145150206608, 1.09234394032298, 0.739217945180342, 1.09234394032298, 0.739217945180342, 1.09234394032298, 
        0.229092986322248, 0.739217945180342, 1.09234394032298, 0.739217945180342, 1.09234394032298, 0.229092986322248, 0.739217945180342, 0.739217945180342, 1.09234394032298, 0.739217945180342, 
        0.739217945180342, 0.739217945180342, 1.09234394032298, 1.09234394032298, 0.739217945180342, 0.739217945180342, 1.09234394032298, 0.229092986322248, 0.739217945180342, 0.739217945180342, 
        0.739217945180342, 0.229092986322248, 0.739217945180342, 0.739217945180342, 0.0325145150206608, 0.00211333800139962, 6.29052422535749e-05, 0.229092986322248, 0.739217945180342, 1.09234394032298, 
        0.229092986322248, 0.739217945180342, 1.09234394032298, 0.739217945180342, 0.739217945180342, 1.09234394032298, 0.229092986322248, 0.229092986322248, 0.739217945180342, 0.739217945180342, 
        1.09234394032298, 0.739217945180342, 0.0325145150206608, 0.739217945180342, 0.739217945180342, 1.09234394032298, 1.09234394032298, 0.739217945180342, 0.229092986322248, 0.739217945180342, 
        0.739217945180342, 1.09234394032298, 0.739217945180342, 0.739217945180342, 1.09234394032298, 1.09234394032298, 0.739217945180342, 0.229092986322248, 0.0325145150206608, 0.739217945180342, 
        1.09234394032298, 1.09234394032298, 0.739217945180342, 1.09234394032298, 0.229092986322248, 0.739217945180342, 1.09234394032298, 0.739217945180342, 0.739217945180342, 0.739217945180342, 
        0.739217945180342, 1.09234394032298, 0.739217945180342, 0.739217945180342, 1.09234394032298, 1.09234394032298, 0.739217945180342, 0.0325145150206608, 0.739217945180342, 0.00211333800139962, 
        1.09234394032298, 0.229092986322248, 1.09234394032298, 0.739217945180342, 1.09234394032298, 0.229092986322248, 0.739217945180342, 1.09234394032298, 0.739217945180342, 1.09234394032298, 
        0.229092986322248, 0.739217945180342, 1.09234394032298, 0.739217945180342, 1.09234394032298, 0.739217945180342, 0.739217945180342, 0.739217945180342, 0.739217945180342, 1.09234394032298, 
        1.09234394032298, 0.739217945180342, 1.09234394032298, 0.739217945180342, 1.09234394032298, 1.09234394032298, 0.739217945180342, 1.09234394032298, 0.0325145150206608, 0.229092986322248, 
        0.00211333800139962, 0.0325145150206608, 0.229092986322248, 0.739217945180342, 0.229092986322248, 0.739217945180342, 0.229092986322248, 1.09234394032298, 0.739217945180342, 0.229092986322248, 
        0.739217945180342, 0.739217945180342, 0.739217945180342, 1.00047019071722, 1, 1, 1, 1, 1, 1, 
        1, 1, 1, 1, 1, 1, 1, 1, 1, 1, 
        1, 1, 1, 1, 1, 1, 1, 1, 1, 2.47469130693951, 
        0.990580332657359, 1, 1, 1, 1, 1, 1, 1, 1, 1, 
        1, 1, 1, 1, 1, 1, 1, 1, 1, 1, 
        1, 1, 1, 1, 1, 1, 1, 1, 1, 1, 
        1, 1, 1, 1, 1, 1, 1, 1, 1, 1, 
        1, 1, 1, 1, 1, 1, 1, 1, 1, 1, 
        1, 1, 1, 1, 1, 1, 1, 1, 1, 1, 
        1, 1, 1, 1, 1, 1, 1, 1, 1, 1, 
        1, 1, 1, 1, 1, 1, 1, 1, 1, 1, 
        1, 1, 1, 1, 1, 1, 1, 1, 1, 1, 
        1, 1, 1, 1, 1, 1, 1, 1, 1, 1, 
        1, 1, 1, 1, 1, 1, 1, 1, 1, 1, 
        1, 1, 1, 1, 1, 1, 1, 1, 1, 1, 
        1
    ],
    "dll": [
        0, 0, 0, 0, 0, 0, 0, 0, 0, 0, 
        0, 0, 0, 0, 0, 0, 0, 0, 0, 0, 
        0, 0, 0, 0, 0, 0, 0, 0, 0, 0, 
        0, 0, 0, 0, 0, 0, 0, 0, 0, 0, 
        0, 0, 0, 0, 0, 0, 0, 0, 0, 0, 
        0, 0, 0, 0, 0, 0, 0, 0, 0, 0, 
        0, 0, 0, 0, 0, 0, 0, 0, 0, 0, 
        0, 0, 0, 0, 0, 0, 0, 0, 0, 0, 
        0, 0, 0, 0, 0, 0, 0, 0, 0, 0, 
        0, 0, 0, 0, 0, 0, 0, 0, 0, 0, 
        0, 0, 0, 0, 0, 0, 0, 0, 0, 0, 
        0, 0, 0, 0, 0, 0, 0, 0, 0, 0, 
        0, 0, 0, 0, 0, 0, 0, 0, 0, 0, 
        0, 0, 0, 0, 0, 0, 0, 0, 0, 0, 
        0, 0, 0, 0, 0, 0, 0, 0, 0, 0, 
        0, 0, 0, 0, 0, 0, 0, 0, 0, 0, 
        0, 0, 0, 0, 0, 0, 0, 0, 0, 0, 
        0, 0, 0, 0, 0, 0, 0, 0, 0, 0, 
        0, 0, 0, 0, 0, 0, 0, 0, 0, 0, 
        0, 0, 0, 0, 0, 0, 0, 0, 0, 0, 
        0, 0, 0, 0, 0, 0, 0, 0, 0, 0, 
        0, 0, 0, 0, 0, 0, 0, 0, 0, 0, 
        0, 0, 0, 0, 0, 0, 0, 0, 0, 0, 
        0, 0, 0, 0, 0, 0, 0, 0, 0, 0, 
        0, 0, 0, 0, 0, 0, 0, 0, 0, 0, 
        0, 0, 0, 0, 0, 0, 0, 0, 0, 0, 
        0, 0, 0, 0, 0, 0, 0, 0, 0, 0, 
        0, 0, 0, 0, 0, 0, 0, 0, 0, 0, 
        0, 0, 0, 0, 0, 0, 0, 0, 0, 0, 
        0
    ],
    "dul": [
        1000000, 1000000, 1000000, 1000000, 1000000, 1000000, 1000000, 1000000, 1000000, 1000000, 
        1000000, 1000000, 1000000, 1000000, 1000000, 1000000, 1000000, 1000000, 1000000, 1000000, 
        1000000, 1000000, 1000000, 1000000, 1000000, 1000000, 1000000, 1000000, 1000000, 1000000, 
        1000000, 1000000, 1000000, 1000000, 1000000, 1000000, 1000000, 1000000, 1000000, 1000000, 
        1000000, 1000000, 1000000, 1000000, 1000000, 1000000, 1000000, 1000000, 1000000, 1000000, 
        1000000, 1000000, 1000000, 1000000, 1000000, 1000000, 1000000, 1000000, 1000000, 1000000, 
        1000000, 1000000, 1000000, 1000000, 1000000, 1000000, 1000000, 1000000, 1000000, 1000000, 
        1000000, 1000000, 1000000, 1000000, 1000000, 1000000, 1000000, 1000000, 1000000, 1000000, 
        1000000, 1000000, 1000000, 1000000, 1000000, 1000000, 1000000, 1000000, 1000000, 1000000, 
        1000000, 1000000, 1000000, 1000000, 1000000, 1000000, 1000000, 1000000, 1000000, 1000000, 
        1000000, 1000000, 1000000, 1000000, 1000000, 1000000, 1000000, 1000000, 1000000, 1000000, 
        1000000, 1000000, 1000000, 1000000, 1000000, 1000000, 1000000, 1000000, 1000000, 1000000, 
        1000000, 1000000, 1000000, 1000000, 1000000, 1000000, 1000000, 1000000, 1000000, 1000000, 
        1000000, 1000000, 1000000, 1000000, 1000000, 1000000, 1000000, 1000000, 1000000, 1000000, 
        1000000, 1000000, 1000000, 1000000, 1000000, 1000000, 1000000, 1000000, 1000000, 1000000, 
        1000000, 1000000, 1000000, 1000000, 1000000, 1000000, 1000000, 1000000, 1000000, 1000000, 
        1000000, 1000000, 1000000, 1000000, 1000000, 1000000, 1000000, 1000000, 1000000, 1000000, 
        1000000, 1000000, 1000000, 1000000, 1000000, 1000000, 1000000, 1000000, 1000000, 1000000, 
        1000000, 1000000, 1000000, 1000000, 1000000, 1000000, 1000000, 1000000, 1000000, 1000000, 
        1000000, 1000000, 1000000, 1000000, 1000000, 1000000, 1000000, 1000000, 1000000, 1000000, 
        1000000, 1000000, 1000000, 1000000, 1000000, 1000000, 1000000, 1000000, 1000000, 1000000, 
        1000000, 1000000, 1000000, 1000000, 1000000, 1000000, 1000000, 1000000, 1000000, 1000000, 
        1000000, 1000000, 1000000, 1000000, 1000000, 1000000, 1000000, 1000000, 1000000, 1000000, 
        1000000, 1000000, 1000000, 1000000, 1000000, 1000000, 1000000, 1000000, 1000000, 1000000, 
        1000000, 1000000, 1000000, 1000000, 1000000, 1000000, 1000000, 1000000, 1000000, 1000000, 
        1000000, 1000000, 1000000, 1000000, 1000000, 1000000, 1000000, 1000000, 1000000, 1000000, 
        1000000, 1000000, 1000000, 1000000, 1000000, 1000000, 1000000, 1000000, 1000000, 1000000, 
        1000000, 1000000, 1000000, 1000000, 1000000, 1000000, 1000000, 1000000, 1000000, 1000000, 
        1000000, 1000000, 1000000, 1000000, 1000000, 1000000, 1000000, 1000000, 1000000, 1000000, 
        1000000
    ],
    "aPH": [
        0, 0, 0, 0, 0, 0, 0, 0, 0, 0, 
        0, 0, 0, 0, 0, 0, 0, 0, 0, 0, 
        0, 0, 0, 0, 0, 0, 0, 0, 0, 0, 
        0, 0, 0, 0, 0, 0, 0, 0, 0, 0, 
        0, 0, 0, 0, 0, 0, 0, 0, 0, 0, 
        0, 0, 0, 0, 0, 0, 0, 0, 0, 0, 
        0, 0, 0, 0, 0, 0, 0, 0, 0, 0, 
        0, 0, 0, 0, 0, 0, 0, 0, 0, 0, 
        0, 0, 0, 0, 0, 0, 0, 0, 0, 0, 
        0, 0, 0, 0, 0, 0, 0, 0, 0, 0, 
        0, 0, 0, 0, 0, 0, 0, 0, 0, 0, 
        0, 0, 0, 0, 0, 0, 0, 0, 0, 0, 
        0, 0, 0, 0, 0, 0, 0, 0, 0
    ],
    "xPH": [
        0.691357095891717, 0, 0, 0.480382674515264, 0, 0, 0, 0, 0, 0.0295135196982894, 
        0, 0, 0, 0, 0, 0, 4.04847957509093e-07, 0, 0, 0, 
        0, 0, 0, 0, 0, 0, 0, 0, 0, 0, 
        0, 0, 0, 0, 0, 0, 0, 0, 0, 0, 
        0, 0, 0, 0, 0, 0, 0, 0, 0, 0, 
        0, 0.0282039830657086, 0, 0, 0, 0, 0, 0.0141018586452809, 0, 0, 
        0, 0, 0, 0, 0, 0, 0, 0, 0.46125500565686, 0, 
        3.40152638423544e-06, 0, 0, 0, 0, 1.25189660229205e-05, 0, 0, 0, 0, 
        0, 0, 0, 0.0321014681815574, 0, 0, 0, 0, 0, 0, 
        0.00539643307939108, 0, 0, 0, 0, 0, 0, 0, 0, 0, 
        0, 0, 0, 0, 2.91394849408047e-06, 8.45682691379051e-06, 0, 0, 0, 0, 
        0, 0, 0, 0, 0, 0, 0, 0, 0, 0, 
        0, 0, 0, 0, 0, 0, 1.48150926744078e-05, 0, 0
    ],
    "vPS": [
        1.23390024981695e-05, 0, 0, 3.04023735833802e-05, 0, 0, 0, 0, 0, 6.89265530666337e-06, 
        0
    ],
    "mPS": [
        0.0125229060430029, 0, 0, 0.0686577652512853, 0, 0, 0, 0, 0, 0.0122272437382138, 
        0
    ],
    "xPA": [
        0.683463776734563, 0, 0, 0, 0, 0, 0, 0, 0, 0, 
        0
    ],
    "amru": [
        1000000, 1000000, 1000000, 1000000, 1000000, 1000000, 1000000, 1000000, 1000000, 1000000, 
        1000000
    ],
    "amrl": [
        0, 0, 0, 0, 0, 0, 0, 0, 0, 0, 
        0
    ],
    "omPH": [
        -1.30728636934896e-08, -0.431118044550263, -1.96064992418894, 1.17782310505701e-09, -0.0852242811333575, -1, -2.89859287765135, -0.0798572273201939, -1, 3.13777592660039e-07, 
        -3.69528795337253, -4.06877754795993, -3.2055495100646, -2.68238062447847, -15.278203788177, -2.46624110967182, -1.3758438003476e-09, -64.6027419205903, -145.431832557766, -1.93537394442803, 
        -38.965800849061, -14.198775763873, -41.3266867581418, -13.0443667437222, -19.050491973233, -6.45013955872875, -17.9787769457016, -4.17483936540399, -2.69437023898006, -4.92322119669915, 
        -3.09661638601489, -2.80347092194232, -5.20657104381563, -2.67820490951672, -1.28599400870411, -1.29538564860989, -1.27955428979269, -4.80302223427585, -17.1854102711062, -27.6060884616008, 
        -7.26241780220865, -34.8234122096139, -35.9347624749249, -30.4941119740454, -15.0248837525854, -34.6213716987786, -6.06441341967943, -4.16822244450996, -2.54534499630788, -0.737074582632794, 
        -5.64156097670256, -1.37647577752193e-08, -5.628979567264, -3.16956837250922, -29.6246018837299, -37.8470876190807, -0.144089771552534, -5.49902043064563e-08, -0.856116296368837, -6.9420035598963, 
        -7.07046564999352, -4.69262301543875, -5.3762418501673, -9.36692471630218, -7.02694035106444, -22.7569863222879, -7.47955894804628, -9.96163031285788, 3.45911205272666e-10, -11.0330802602992, 
        1.97494265150068e-13, -18.4284934433738, -3.15477910538366, -2.89008883301199, -3.92975197423422, 0, -0.814081378078606, -53.2474368348499, -24.9053398113942, -3.20226227217143, 
        -16.4458963674544, -5.84669653908233, -3.17595257587363, 2.46867831437634e-14, -207.689232672631, -126.341373615832, -32.554790156271, -3.36793102288313, -5.43345551372865, -59.8922013207055, 
        -3.94988530300406e-13, -7.24015159301596, -32.5173524205152, -13.3389193376122, -13.4492869342385, -0.989400584953186, -33.0873105532888, -35.9391339084692, -34.8137227811155, -35.0121035665213, 
        -19.088261895964, -19.9427686995088, -11.1628295617997, -1.37644572944142, -3.12234025976591e-07, 1.07586593026822e-07, -5.85294688887828, -5.60009566867305, -25.9233609204412, -8.60970509082257, 
        -20.3004927555907, -14.9549576591826, -11.6187107966579, -17.4464981300929, -9.42127466189275, -11.0131727705981, -28.9061764071674, -11.3996949252497, -23.8553915114936, -23.0023148277076, 
        -25.6040696918392, -32.8053199703356, -43.6942658346156, -92.6649978394517, -5.23425609372611, -6.28373338737638, -1.32965482894175e-09, -1.65112412638554, -4.03979066189843
    ],
    "bPS": [
        5.18260386293229e-07, 1.61723191563405e-05, 2.36146326991388e-08, 8.40319891123592e-06, 2.10154499553583e-06, 1.55734825459387e-05, 1.71107480084272e-05, 2.5616460577206e-06, 5.92790842692962e-12, 1.37093691521821, 0.0027033363886685, 4.17565300739889e-06, 1.97306240922962e-11, 1.89851375416773e-17, 1.1765439564347e-06, 0.00135739573412942, 5.4729517594269e-06, 0.687595152864347, 1.15017016435827e-12, 1.92259536198435e-05, 6.53302294482783e-07, 1.51725050591293e-06, 0, 2.78084505554356e-18, 
        0, 0, 0, 0, 0, 0, 0, 0, 0, 0, 0, 0, 0, 0, 0, 0, 0, 0, 0, 0, 0, 0, 0, 0, 
        0, 0, 0, 0, 0, 0, 0, 0, 0, 0, 0, 0, 0, 0, 0, 0, 0, 0, 0, 0, 0, 0, 0, 0, 
        0, 0, 0, 0, 0, 0.534889260866572, 0, 0, 0, 1.93703097028115, 0.0130572735807327, 0, 0, 0, 0, 0.0114803047947313, 0, 2.18951774539209, 0, 0, 0.336922105098605, 0, 0, 0, 
        0, 0, 0, 0, 0, 0, 0, 0, 0, 0, 0, 0, 0, 0, 0, 0, 0, 0, 0, 0, 0, 0, 0, 0, 
        0, 0, 0, 0, 0, 0, 0, 0, 0, 0, 0, 0, 0, 0, 0, 0, 0, 0, 0, 0, 0, 0, 0, 0, 
        0, 0, 0, 0, 0, 0, 0, 0, 0, 0, 0, 0, 0, 0, 0, 0, 0, 0, 0, 0, 0, 0, 0, 0, 
        0, 0, 0, 0, 0, 0, 0, 0, 0, 0, 0, 0, 0, 0, 0, 0, 0, 0, 0, 0, 0, 0, 0, 0, 
        0, 0, 0, 0, 0, 0, 0, 0, 0, 0, 0, 0, 0, 0, 0, 0, 0, 0, 0, 0, 0, 0, 0, 0, 
        0.0196756807826436, 0, 0, 0, 0.00333751850790135, 0.0590270393965789, 0, 0, 0, 0.629621755531076, 0, 0, 0, 0, 0, 0, 0, 0.488554477447373, 0, 0.0261760011903881, 0, 0, 0, 0, 
        0, 0, 0, 0, 0, 0, 0, 0, 0, 0, 0, 0, 0, 0, 0, 0, 0, 0, 0, 0, 0, 0, 0, 0
    ]
  }
}
]